<svg width="127" height="26" viewBox="0 0 127 26" fill="none" xmlns="http://www.w3.org/2000/svg">
<path d="M11.576 25.224C9.50667 25.224 7.61867 24.744 5.912 23.784C4.20533 22.8027 2.85067 21.448 1.848 19.72C0.866667 17.9707 0.376 16.008 0.376 13.832C0.376 11.656 0.866667 9.704 1.848 7.976C2.85067 6.22667 4.20533 4.872 5.912 3.912C7.61867 2.93067 9.50667 2.44 11.576 2.44C13.6667 2.44 15.5653 2.93067 17.272 3.912C18.9787 4.872 20.3227 6.216 21.304 7.944C22.2853 9.672 22.776 11.6347 22.776 13.832C22.776 16.0293 22.2853 17.992 21.304 19.72C20.3227 21.448 18.9787 22.8027 17.272 23.784C15.5653 24.744 13.6667 25.224 11.576 25.224ZM11.576 22.696C13.1333 22.696 14.5307 22.3333 15.768 21.608C17.0267 20.8827 18.008 19.848 18.712 18.504C19.4373 17.16 19.8 15.6027 19.8 13.832C19.8 12.04 19.4373 10.4827 18.712 9.16C18.008 7.816 17.0373 6.78133 15.8 6.056C14.5627 5.33067 13.1547 4.968 11.576 4.968C9.99733 4.968 8.58933 5.33067 7.352 6.056C6.11467 6.78133 5.13333 7.816 4.408 9.16C3.704 10.4827 3.352 12.04 3.352 13.832C3.352 15.6027 3.704 17.16 4.408 18.504C5.13333 19.848 6.11467 20.8827 7.352 21.608C8.61067 22.3333 10.0187 22.696 11.576 22.696ZM42.1723 7.464V25H39.2603V22.408C38.7056 23.304 37.9269 24.008 36.9243 24.52C35.9429 25.0107 34.8549 25.256 33.6603 25.256C32.2949 25.256 31.0683 24.9787 29.9803 24.424C28.8923 23.848 28.0283 22.9947 27.3883 21.864C26.7696 20.7333 26.4603 19.3573 26.4603 17.736V7.464H29.3403V17.352C29.3403 19.08 29.7776 20.4133 30.6523 21.352C31.5269 22.2693 32.7216 22.728 34.2363 22.728C35.7936 22.728 37.0203 22.248 37.9163 21.288C38.8123 20.328 39.2603 18.9307 39.2603 17.096V7.464H42.1723ZM50.001 10.312C50.513 9.30933 51.2383 8.53067 52.177 7.976C53.137 7.42133 54.2997 7.144 55.665 7.144V10.152H54.897C51.633 10.152 50.001 11.9227 50.001 15.464V25H47.089V7.464H50.001V10.312ZM74.6938 9.864H71.0138V25H68.1018V9.864H65.8298V7.464H68.1018V6.216C68.1018 4.25333 68.6031 2.824 69.6058 1.928C70.6298 1.01067 72.2618 0.551998 74.5017 0.551998V2.984C73.2218 2.984 72.3151 3.24 71.7818 3.752C71.2698 4.24267 71.0138 5.064 71.0138 6.216V7.464H74.6938V9.864ZM79.593 4.616C79.0383 4.616 78.569 4.424 78.185 4.04C77.801 3.656 77.609 3.18667 77.609 2.632C77.609 2.07733 77.801 1.608 78.185 1.224C78.569 0.839999 79.0383 0.647999 79.593 0.647999C80.1263 0.647999 80.5743 0.839999 80.937 1.224C81.321 1.608 81.513 2.07733 81.513 2.632C81.513 3.18667 81.321 3.656 80.937 4.04C80.5743 4.424 80.1263 4.616 79.593 4.616ZM81.001 7.464V25H78.089V7.464H81.001ZM88.876 10.312C89.388 9.30933 90.1133 8.53067 91.052 7.976C92.012 7.42133 93.1747 7.144 94.54 7.144V10.152H93.772C90.508 10.152 88.876 11.9227 88.876 15.464V25H85.964V7.464H88.876V10.312ZM118.99 7.144C120.355 7.144 121.571 7.432 122.638 8.008C123.704 8.56267 124.547 9.40533 125.166 10.536C125.784 11.6667 126.094 13.0427 126.094 14.664V25H123.214V15.08C123.214 13.3307 122.776 11.9973 121.902 11.08C121.048 10.1413 119.886 9.672 118.414 9.672C116.899 9.672 115.694 10.1627 114.798 11.144C113.902 12.104 113.454 13.5013 113.454 15.336V25H110.574V15.08C110.574 13.3307 110.136 11.9973 109.262 11.08C108.408 10.1413 107.246 9.672 105.774 9.672C104.259 9.672 103.054 10.1627 102.158 11.144C101.262 12.104 100.814 13.5013 100.814 15.336V25H97.9015V7.464H100.814V9.992C101.39 9.07467 102.158 8.37067 103.118 7.88C104.099 7.38933 105.176 7.144 106.35 7.144C107.822 7.144 109.123 7.47467 110.254 8.136C111.384 8.79733 112.227 9.768 112.782 11.048C113.272 9.81067 114.083 8.85067 115.214 8.168C116.344 7.48533 117.603 7.144 118.99 7.144Z" fill="#403E3B"/>
</svg>
